{
  "__this project needs to run as root, since it switches user to webstorage": "ok",
  "setuid": 0,
  "setgid": 0,

  "complete_log": "{{ current_api_log_dir_path }}",

  "mc_primary_domain": "{{ service_main_domain }}",
  "mc_server_name": "{{ server_name }}",

  "hosting_info_directory": "memory",


  "cmd_wrapper": "/opt/MonsterGit/lib/cmds/cmd.sh",
  "ssh_deployment_keys_directory": "{{ current_api_lib_dir_path }}/ssh-keys",

  "listen_port": 10012,
  "db": {
          "client": "sqlite3",
          "connection": {
            "filename": "{{ current_api_lib_dir_path }}/git.sqlite"
          },
      "useNullAsDefault": true
  },
  "volume_directory": "{{ current_api_lib_dir_path }}"
}
